{
  "app:toggle-left-sidebar": [
    {
      "modifiers": [
        "Alt"
      ],
      "key": "["
    },
    {
      "modifiers": [
        "Mod"
      ],
      "key": "\\"
    }
  ],
  "app:toggle-right-sidebar": [
    {
      "modifiers": [
        "Alt"
      ],
      "key": "\\"
    },
    {
      "modifiers": [
        "Alt"
      ],
      "key": "]"
    }
  ],
  "app:open-vault": [
    {
      "modifiers": [
        "Mod",
        "Shift"
      ],
      "key": "O"
    }
  ],
  "open-vscode:open-vscode": [],
  "daily-notes": [
    {
      "modifiers": [
        "Alt",
        "Shift"
      ],
      "key": "E"
    },
    {
      "modifiers": [
        "Alt"
      ],
      "key": "Q"
    }
  ],
  "editor:toggle-blockquote": [
    {
      "modifiers": [
        "Alt",
        "Shift"
      ],
      "key": "'"
    }
  ],
  "file-explorer:reveal-active-file": [
    {
      "modifiers": [
        "Alt"
      ],
      "key": "R"
    },
    {
      "modifiers": [
        "Mod"
      ],
      "key": "R"
    }
  ],
  "app:go-back": [
    {
      "modifiers": [
        "Alt"
      ],
      "key": "ArrowLeft"
    }
  ],
  "app:go-forward": [
    {
      "modifiers": [
        "Alt"
      ],
      "key": "ArrowRight"
    }
  ],
  "workspace:copy-url": [
    {
      "modifiers": [
        "Mod"
      ],
      "key": "L"
    }
  ],
  "templater-obsidian:replace-in-file-templater": [
    {
      "modifiers": [
        "Alt"
      ],
      "key": "T"
    }
  ],
  "templater-obsidian:templater/now.md": [
    {
      "modifiers": [
        "Alt",
        "Mod"
      ],
      "key": ";"
    }
  ],
  "templater-obsidian:templater/now-wiki.md": [
    {
      "modifiers": [
        "Mod",
        "Shift"
      ],
      "key": ";"
    }
  ],
  "templater-obsidian:templater/time.md": [
    {
      "modifiers": [
        "Alt"
      ],
      "key": ";"
    }
  ],
  "templater-obsidian:templater/date.md": [
    {
      "modifiers": [
        "Mod"
      ],
      "key": ";"
    }
  ],
  "obsidian-editor-shortcuts:selectLine": [
    {
      "modifiers": [
        "Mod",
        "Shift"
      ],
      "key": "L"
    }
  ],
  "editor:toggle-code": [
    {
      "modifiers": [
        "Alt"
      ],
      "key": "`"
    }
  ],
  "obsidian-day-planner:app:add-day-planner-to-note": [
    {
      "modifiers": [
        "Alt",
        "Shift"
      ],
      "key": "Q"
    }
  ],
  "editor:swap-line-up": [
    {
      "modifiers": [
        "Alt"
      ],
      "key": "ArrowUp"
    }
  ],
  "editor:swap-line-down": [
    {
      "modifiers": [
        "Alt"
      ],
      "key": "ArrowDown"
    }
  ],
  "window-collapse:collapse-sidebars": [
    {
      "modifiers": [
        "Mod",
        "Shift"
      ],
      "key": "\\"
    }
  ],
  "workspace:copy-path": [
    {
      "modifiers": [
        "Alt",
        "Mod"
      ],
      "key": "C"
    }
  ],
  "copy-publish-url:copy-publish-url": [
    {
      "modifiers": [
        "Alt",
        "Shift"
      ],
      "key": "L"
    }
  ],
  "editor:focus-right": [
    {
      "modifiers": [
        "Alt",
        "Shift"
      ],
      "key": "]"
    },
    {
      "modifiers": [
        "Mod"
      ],
      "key": "Tab"
    },
    {
      "modifiers": [
        "Alt",
        "Mod"
      ],
      "key": "ArrowRight"
    }
  ],
  "editor:focus-left": [
    {
      "modifiers": [
        "Alt",
        "Shift"
      ],
      "key": "["
    },
    {
      "modifiers": [
        "Mod",
        "Shift"
      ],
      "key": "Tab"
    },
    {
      "modifiers": [
        "Alt",
        "Mod"
      ],
      "key": "ArrowLeft"
    }
  ],
  "obsidian-fullscreen-plugin:fullscreen-focus": [
    {
      "modifiers": [
        "Alt"
      ],
      "key": "F"
    }
  ],
  "workspace:close-others": [
    {
      "modifiers": [
        "Mod",
        "Shift"
      ],
      "key": "W"
    }
  ],
  "obsidian-editor-shortcuts:insertLineBelow": [
    {
      "modifiers": [
        "Shift"
      ],
      "key": "PageDown"
    }
  ],
  "obsidian-editor-shortcuts:insertLineAbove": [
    {
      "modifiers": [
        "Shift"
      ],
      "key": "PageUp"
    },
    {
      "modifiers": [
        "Shift"
      ],
      "key": "Enter"
    }
  ],
  "open-with-default-app:show": [
    {
      "modifiers": [
        "Mod",
        "Shift"
      ],
      "key": "R"
    }
  ],
  "calendar:reveal-active-note": [
    {
      "modifiers": [
        "Alt",
        "Mod",
        "Shift"
      ],
      "key": "R"
    }
  ],
  "graph:open": [],
  "editor:delete-paragraph": [],
  "obsidian-excalidraw-plugin:toggle-excalidraw-view": [],
  "obsidian-excalidraw-plugin:insert-link": [
    {
      "modifiers": [
        "Alt",
        "Mod",
        "Shift"
      ],
      "key": "K"
    }
  ],
  "obsidian-kanban:toggle-kanban-view": [
    {
      "modifiers": [
        "Alt",
        "Mod",
        "Shift"
      ],
      "key": "E"
    }
  ],
  "editor:set-heading": [
    {
      "modifiers": [
        "Mod"
      ],
      "key": "3"
    }
  ],
  "code-block-from-selection:6e221bf7-3173-4939-8e4a-e721f67575b1": [
    {
      "modifiers": [
        "Mod"
      ],
      "key": "."
    }
  ],
  "code-block-from-selection:07d4d8dc-ee61-4e42-b6fe-11565a785dbe": [
    {
      "modifiers": [
        "Mod"
      ],
      "key": "`"
    }
  ],
  "obsidian-day-planner:app:show-day-planner-today-note": [
    {
      "modifiers": [
        "Alt"
      ],
      "key": "Q"
    }
  ],
  "editor:toggle-bullet-list": [
    {
      "modifiers": [
        "Mod",
        "Shift"
      ],
      "key": "Enter"
    },
    {
      "modifiers": [
        "Mod",
        "Shift"
      ],
      "key": "5"
    }
  ],
  "obsidian-mind-map:app:markmap-preview": [
    {
      "modifiers": [
        "Mod",
        "Shift"
      ],
      "key": "M"
    }
  ],
  "editor:toggle-source": [
    {
      "modifiers": [
        "Alt"
      ],
      "key": "/"
    },
    {
      "modifiers": [
        "Alt"
      ],
      "key": "E"
    }
  ],
  "obsidian-shellcommands:shell-command-1": [
    {
      "modifiers": [
        "Alt"
      ],
      "key": "V"
    }
  ],
  "big-calendar:open-big-calendar": [
    {
      "modifiers": [
        "Alt",
        "Mod",
        "Shift"
      ],
      "key": "C"
    }
  ],
  "mrj-jump-to-link:activate-jump-to-anywhere": [],
  "obsidian-excalidraw-plugin:insert-link-to-element": [],
  "obsidian-activity-logger:insert-logs": [],
  "obsidian-excalidraw-plugin:convert-excalidraw": [],
  "advanced-cursors:add-cursor-above": [
    {
      "modifiers": [
        "Alt",
        "Mod"
      ],
      "key": "ArrowUp"
    }
  ],
  "advanced-cursors:add-cursor-below": [
    {
      "modifiers": [
        "Alt",
        "Mod"
      ],
      "key": "ArrowDown"
    }
  ],
  "advanced-cursors:add-next-match-to-selections": [
    {
      "modifiers": [
        "Mod"
      ],
      "key": "D"
    }
  ],
  "maximise-active-pane-obsidian:maximise-active-pane": [
    {
      "modifiers": [
        "Mod",
        "Shift"
      ],
      "key": "E"
    }
  ],
  "app:delete-file": [
    {
      "modifiers": [
        "Alt",
        "Shift"
      ],
      "key": "Delete"
    }
  ],
  "editor:open-link-in-new-leaf": [
    {
      "modifiers": [
        "Alt",
        "Shift"
      ],
      "key": "Enter"
    }
  ],
  "publish:view-changes": [
    {
      "modifiers": [
        "Alt",
        "Shift"
      ],
      "key": "P"
    }
  ],
  "markdown-importer:open": [
    {
      "modifiers": [
        "Alt",
        "Shift"
      ],
      "key": "I"
    }
  ],
  "workspace:split-vertical": [
    {
      "modifiers": [
        "Alt",
        "Mod",
        "Shift"
      ],
      "key": "ArrowRight"
    }
  ],
  "copy-publish-url:open-publish-url": [
    {
      "modifiers": [
        "Alt",
        "Shift"
      ],
      "key": "O"
    }
  ],
  "note-composer:extract-heading": [
    {
      "modifiers": [
        "Alt",
        "Shift"
      ],
      "key": "1"
    }
  ],
  "file-explorer:move-file": [
    {
      "modifiers": [
        "Alt",
        "Shift"
      ],
      "key": "M"
    }
  ],
  "editor:toggle-numbered-list": [
    {
      "modifiers": [
        "Mod",
        "Shift"
      ],
      "key": "6"
    }
  ],
  "editor:toggle-checklist-status": [
    {
      "modifiers": [
        "Mod",
        "Shift"
      ],
      "key": "7"
    }
  ],
  "editor:cycle-list-checklist": [
    {
      "modifiers": [
        "Alt",
        "Shift"
      ],
      "key": "5"
    },
    {
      "modifiers": [
        "Mod"
      ],
      "key": "Enter"
    }
  ],
  "obsidian-shellcommands:shell-command-0": [
    {
      "modifiers": [
        "Mod",
        "Shift"
      ],
      "key": "`"
    },
    {
      "modifiers": [
        "Mod"
      ],
      "key": "J"
    }
  ],
  "obsidian-editor-shortcuts:joinLines": [],
  "templater-obsidian:insert-templater": [
    {
      "modifiers": [
        "Alt",
        "Shift"
      ],
      "key": "T"
    }
  ],
  "obsidian-icons-plugin:open-icons-plugin-modal": [
    {
      "modifiers": [
        "Alt",
        "Shift"
      ],
      "key": "I"
    }
  ],
  "obsidian-excalidraw-plugin:toggle-lock": [],
  "obsidian-excalidraw-plugin:search-text": [
    {
      "modifiers": [
        "Alt",
        "Shift"
      ],
      "key": "F"
    }
  ],
  "obsidian-excalidraw-plugin:fullscreen": [
    {
      "modifiers": [
        "Alt"
      ],
      "key": "F11"
    }
  ]
}